<svg xmlns="http://www.w3.org/2000/svg" enable-background="new 0 0 24 24" height="24px" viewBox="0 0 24 24" width="24px"
     fill="#000000">
    <rect fill="none" height="24" width="24"/>
    <path d="M22,7h-9v2h9V7z M22,15h-9v2h9V15z M5.54,11L2,7.46l1.41-1.41l2.12,2.12l4.24-4.24l1.41,1.41L5.54,11z M5.54,19L2,15.46 l1.41-1.41l2.12,2.12l4.24-4.24l1.41,1.41L5.54,19z"/>
</svg>